…
The estimate proportion of unsolved homicides in baltimore is 64.56%. And the confidence interval is \[62.76%, 66.32%\].

``` r
unsolved_prop = 
  homicides_unsolved %>% 
  mutate(prop_all = map2(.x = homicides_unsolved$n_unsolved, 
                         .y = homicides_total$n_total, ~prop.test(.x, .y))) %>% 
  mutate(prop_all = map(prop_all, broom::tidy)) %>% 
  unnest() %>% 
  select(city_state, estimate, conf.low, conf.high)
unsolved_prop
```

    ## # A tibble: 50 x 4
    ##    city_state      estimate conf.low conf.high
    ##    <chr>              <dbl>    <dbl>     <dbl>
    ##  1 Albuquerque, NM    0.386    0.337     0.438
    ##  2 Atlanta, GA        0.383    0.353     0.415
    ##  3 Baltimore, MD      0.646    0.628     0.663
    ##  4 Baton Rouge, LA    0.462    0.414     0.511
    ##  5 Birmingham, AL     0.434    0.399     0.469
    ##  6 Boston, MA         0.505    0.465     0.545
    ##  7 Buffalo, NY        0.612    0.569     0.654
    ##  8 Charlotte, NC      0.300    0.266     0.336
    ##  9 Chicago, IL        0.736    0.724     0.747
    ## 10 Cincinnati, OH     0.445    0.408     0.483
    ## # ... with 40 more rows
…
